{
    "KPackageStructure": "Plasma/LayoutTemplate",
    "KPlugin": {
        "Authors": [
            {
                "Email": "devin@kde.org",
                "Name": "Devin Lin",
                "Name[ar]": "ديفين لين",
                "Name[az]": "Devin Lin",
                "Name[ca@valencia]": "Devin Lin",
                "Name[ca]": "Devin Lin",
                "Name[cs]": "Devin Lin",
                "Name[de]": "Devin Lin",
                "Name[en_GB]": "Devin Lin",
                "Name[eo]": "Devin Lin",
                "Name[es]": "Devin Lin",
                "Name[eu]": "Devin Lin",
                "Name[fi]": "Devin Lin",
                "Name[fr]": "Devin Lin",
                "Name[gl]": "Devin Lin",
                "Name[he]": "דווין לין",
                "Name[hu]": "Devin Lin",
                "Name[ia]": "Devin Lin",
                "Name[is]": "Devin Lin",
                "Name[it]": "Devin Lin",
                "Name[ka]": "Devin Lin",
                "Name[ko]": "Devin Lin",
                "Name[lv]": "Devin Lin",
                "Name[nl]": "Devin Lin",
                "Name[nn]": "Devin Lin",
                "Name[pa]": "ਡੇਵਿਨ ਲਿਨ",
                "Name[pl]": "Devin Lin",
                "Name[pt]": "Devin Lin",
                "Name[pt_BR]": "Devin Lin",
                "Name[ru]": "Devin Lin",
                "Name[sk]": "Devin Lin",
                "Name[sl]": "Devin Lin",
                "Name[sv]": "Devin Lin",
                "Name[tr]": "Devin Lin",
                "Name[uk]": "Devin Lin",
                "Name[x-test]": "xxDevin Linxx",
                "Name[zh_CN]": "Devin Lin",
                "Name[zh_TW]": "Devin Lin"
            }
        ],
        "Category": "",
        "Description": "Default navigation panel for mobile",
        "Description[ca@valencia]": "Quadro de navegació predeterminat per al mòbil",
        "Description[ca]": "Plafó de navegació predeterminat per al mòbil",
        "Description[en_GB]": "Default navigation panel for mobile",
        "Description[eo]": "Defaŭlta navigpanelo por poŝtelefono",
        "Description[es]": "Panel de navegación predeterminado para dispositivos móviles",
        "Description[eu]": "Mugikorrerako nabigatzeko panel lehenetsia",
        "Description[fr]": "Panneau par défaut de navigation pour périphériques mobiles",
        "Description[gl]": "Panel de navegación predeterminado para móbil.",
        "Description[he]": "לוח ניווט כברירת מחדל לנייד",
        "Description[hu]": "Alapértelmezett navigációs panel mobilokhoz",
        "Description[ia]": "Pannello de Navigation predefinite per mobile",
        "Description[it]": "Pannello di navigazione predefinito per dispositivi mobili",
        "Description[ka]": "ნაგულისხმევი ნავიგაციის პანელი მობილური მოწყობილობებისთვის",
        "Description[ko]": "모바일의 기본 탐색 패널",
        "Description[lv]": "Mobilās ierīces noklusējuma navigācijas panelis",
        "Description[nl]": "Standaard navigatiepaneel voor mobiel",
        "Description[nn]": "Standard navigasjonspanel for mobil",
        "Description[pl]": "Pasek poruszania się",
        "Description[ru]": "Панель навигации по умолчанию для мобильных устройств",
        "Description[sl]": "Privzeta krmilna plošča za mobilne naprave",
        "Description[sv]": "Standardnavigeringspanel för mobil",
        "Description[tr]": "Cep için öntanımlı dolaşım paneli",
        "Description[uk]": "Типова панель навігації для мобільних",
        "Description[x-test]": "xxDefault navigation panel for mobilexx",
        "Description[zh_CN]": "手机的默认导航面板",
        "Description[zh_TW]": "手機用的預設導覽面板",
        "EnabledByDefault": true,
        "Id": "org.kde.plasma.mobile.defaultNavigationPanel",
        "License": "LGPLv2+",
        "Name": "Default Mobile Navigation Panel",
        "Name[ca@valencia]": "Quadro de navegació predeterminat del mòbil",
        "Name[ca]": "Plafó de navegació predeterminat del mòbil",
        "Name[en_GB]": "Default Mobile Navigation Panel",
        "Name[eo]": "Defaŭlta Poŝtelefona Navigpanelo",
        "Name[es]": "Panel de navegación móvil predeterminado",
        "Name[eu]": "Mugikorreko nabigatzeko panel lehenetsia",
        "Name[fr]": "Panneau par défaut de navigation pour périphériques mobiles",
        "Name[gl]": "Panel de navegación predeterminado para móbil",
        "Name[he]": "לוח ניווט כברירת מחדל לנייד",
        "Name[hu]": "Alapértelmezett mobil navigációs panel",
        "Name[ia]": "Pannello de Navigation predefinite de Mobile",
        "Name[it]": "Pannello di navigazione predefinito per dispositivi mobili",
        "Name[ka]": "ნაგულისხმევი მობილური ნავიგაციის პანელი",
        "Name[ko]": "기본 모바일 탐색 패널",
        "Name[lv]": "Noklusējuma mobilās navigācijas panelis",
        "Name[nl]": "Standaard navigatiepaneel van mobiel",
        "Name[nn]": "Standard mobil­navigasjonspanel",
        "Name[pl]": "Domyślny pasek poruszania się",
        "Name[ru]": "Панель навигации по умолчанию для мобильных устройств",
        "Name[sl]": "Privzeta postavitev za mobilne naprave",
        "Name[sv]": "Mobil standardnavigeringspanel",
        "Name[tr]": "Öntanımlı Taşınabilir Dolaşım Paneli",
        "Name[uk]": "Типова панель навігації для мобільних",
        "Name[x-test]": "xxDefault Mobile Navigation Panelxx",
        "Name[zh_CN]": "默认手机导航面板",
        "Name[zh_TW]": "預設手機導覽面板",
        "Website": "https://www.kde.org/plasma-desktop"
    },
    "X-Plasma-ContainmentCategories": [
        "panel"
    ],
    "X-Plasma-Shell": "plasmashell"
}
